<?xml version="1.0"?>
<VTKFile type="UnstructuredGrid"  version="0.1"  >
<UnstructuredGrid>
<Piece  NumberOfPoints="743" NumberOfCells="1356">
<Points>
<DataArray  type="Float64"  NumberOfComponents="3"  format="ascii">0 0.5 0  0 -0.5 0  1 -0.5 0  1 0.5 0  0.5 -0.5 0  1 0 0  0.5 0.5 0  0 0 0  0.5 0 0  0 -0.25 0  0.25 -0.5 0  0.25 0.5 0  0 0.25 0  1 -0.25 0  0.75 -0.5 0  1 0.25 0  0.75 0.5 0  0.7083333333333333 -0.2083333333333333 0  0.2916666666666666 0.2083333333333333 0  0.375 -0.25 0  0.75 0.125 0  0.2569444444444444 -0.03472222222222222 0  0.5366379310344828 0.2535919540229885 0  0.1875 -0.3125 0  0.8125 0.3125 0  0.8690476190476191 -0.125 0  0.1450441919191919 0.1052714646464646 0  0.375 0.3690476190476191 0  0.5526960784313725 -0.3174019607843137 0  0.8385416666666666 -0.3385416666666666 0  0.1614583333333333 0.3385416666666667 0  0.6736111111111112 -0.03472222222222221 0  0.1367521367521368 -0.1522435897435898 0  0.6570970491253563 0.3648656830417855 0  0.5102479397556123 -0.1613739698778062 0  0.3654513888888889 0.07378472222222224 0  0.6929750044954185 -0.3637215078415736 0  0.388576102743835 -0.08808827476240089 0  0.6091269841269842 0.09424603174603174 0  0.875 0.1875 0  0.427278890279516 -0.380110554860242 0  0.8544456845238095 0.02139136904761905 0  0.125 -0.5 0  0 -0.375 0  1 0.375 0  0.875 0.5 0  0.1280008648150532 -0.02307076597732229 0  0.2695382451711197 -0.1678249049778447 0  0.7031567235715964 0.2447810921428012 0  0.625 -0.5 0  0.375 -0.5 0  0.125 0.5 0  0.875 -0.5 0  0 -0.125 0  0 0.125 0  1 -0.125 0  0.375 0.5 0  1 -0.375 0  0 0.375 0  0.625 0.5 0  1 0.125 0  0.2979288363930608 -0.3798570545356464 0  0.4109195402298851 0.2484605911330049 0  0.5325041980395562 0.378905151526474 0  0.4831670727569156 0.1331060043826488 0  0.1735997378973042 0.2204747378973043 0  0.2534919507575758 0.07723721590909091 0  0.2633928571428572 0.3876488095238095 0  0.8199404761904762 -0.2269345238095238 0  0.75830270586982 -0.1080616810482583 0  0.5750282248382511 -0.07624776469763339 0  0.6008360210023378 -0.2205171641401504 0  0.08163442644334186 0.1821295860397322 0  0.08333333333333333 -0.3125 0  0.2028380815996575 -0.4115539728001141 0  0.2766521142611967 -0.2674563427835903 0  0.90625 0.28125 0  0.890625 0.390625 0  0.7545696325008384 0.3973565441669462 0  0.5625 -0.4191340965916568 0  0.09077380952380953 -0.4092261904761905 0  0.4610923478694773 -0.290965984850344 0  0.7542527598351648 0.0248380520595106 0  0.6459235536037466 -0.1380086011594235 0  0.7560381768882634 -0.2949385776614799 0  0.2400955776842301 0.2869705776842302 0  0.07073252688172042 0.3125 0  0.0924753097241701 0.4078102849914793 0  0.9292674731182795 -0.3125 0  0.9075246902758297 -0.4078102849914793 0  0.8125 -0.4292674731182796 0  0.9121050213379069 -0.2218021798168306 0  0.7916878157143976 0.2239689078571988 0  0.9345238095238095 -0.0625 0  0.4375 0.4345238095238095 0  0.3725616989755204 0.1651895248862173 0  0.06536271996350886 0.0625 0  0.9348362560379583 0.06250000000000001 0  0.456646798987055 0.3277247094351966 0  0.1875 0.4355758238725954 0  0.6169761231634859 0.1939779188977889 0  0.6226854751147515 0.2827911461419013 0  0.3305695598137627 0.2901697871282584 0  0.5865305325818899 0.01010854790434476 0  0.6622701297028377 -0.2822336010242604 0  0.1354166666666667 -0.2408297720797721 0  0 -0.1875 0  0.2094429575680048 -0.10636381538375 0  0.836666296419157 0.1079174071616859 0  0.6875 0.5 0  0.214261555450504 0.1492551722020035 0  0 -0.0625 0  0.07731537126068377 -0.09375 0  0.3427725432967068 -0.01204337663004007 0  0.3550792513951871 -0.1668046367390047 0  0.4462473953896856 -0.2112165210657492 0  0.4747801464819794 -0.08261394796987293 0  0.8229836475148948 -0.05567076507626587 0  0.7322605135514757 0.3199240278289672 0  0.6756431877205955 0.04689897481267868 0  0.1968419507215863 0.01945734826124951 0  0.3285590277777778 0.4345238095238095 0  0.8125 0.5 0  0.4198917601920009 0.01348930453312579 0  0.5232405503206691 -0.2404208212119843 0  1 0.4375 0  0.1987510870015086 -0.1974814048105569 0  0.5625 0.5 0  0.6005390654136388 0.4228110509230953 0  0.6411254848194414 -0.4229512723455706 0  0.3357233162523243 -0.3144886775469468 0  0.6730653396610877 0.1393887462324165 0  0.3109669872340629 0.1240019765311627 0  0.7368737836204349 -0.4254224479767212 0  0.6192316414418171 -0.3514761593621406 0  0.5432429670607106 0.1785527038440061 0  0.4754371679695679 0.2103946803120881 0  0.07501324890749672 -0.1956160102664261 0  0.5358146975860404 0.06883214632059149 0  0.3115271739500156 -0.1017862634028555 0  0.3625191397122175 -0.4232145396349451 0  0.5024029442563831 -0.3735871776241555 0  0.4375 -0.5 0  0.4699946908887377 -0.4362003882622427 0  0.9375 0.21875 0  0.9272105898044465 0.135671179608893 0  0.9375 0.5 0  0.6690971819568612 0.4331530898202766 0  0.1073454944778885 0.2499206387638554 0  0.8699082999280406 -0.2767596347475687 0  0.5773118091863964 -0.1451972650840619 0  0.1354166666666667 -0.3571428571428571 0  0.3125 -0.5 0  0.8241684193077341 0.4257452995055244 0  0.4352314948354035 -0.1413059152510621 0  0.4351301473778832 0.08197260435390775 0  0.8073232928518164 -0.1580601829658037 0  0.7775949246947366 -0.3701480590795426 0  0.6875 -0.5 0  0.7413513991851041 -0.04206667504551699 0  0.939453125 0.341796875 0  0.5630355154606987 0.3171875156478349 0  0.9345238095238095 -0.1538533407631424 0  0.9375 -0.5 0  1 -0.4375 0  0.0625 0.5 0  0 0.4375 0  0.06552178593177166 -0.003094633037653214 0  0.1424866619031703 -0.08697222907087759 0  0.1275287182444726 0.04229469080025879 0  0.2369982584340844 -0.355549911981056 0  0.2637686595586339 -0.4358611153547045 0  0.7367218397988525 0.188857397066084 0  0.0625 -0.5 0  0 -0.4375 0  0.8463594539285995 0.2578283617857982 0  0.3128751192101563 -0.2148002625630053 0  0.4015281788351144 -0.3193578614886308 0  0.1910251795116588 -0.04466678028255465 0  0.287797471442006 0.02226214405439014 0  0.3505895299554844 0.2304878890838691 0  0.3962628745986056 0.3097380085535308 0  0.5019151500495275 0.4356042615328103 0  0.9374389419410134 -6.896092399490128e-06 0  0.3125 0.5 0  0.1875 0.5 0  1 0.0625 0  0.4375 0.5 0  1 -0.1875 0  1 -0.0625 0  0.8125 -0.5 0  1 -0.3125 0  0.5625 -0.5 0  0.1875 -0.5 0  0 -0.3125 0  0 0.0625 0  0 0.1875 0  0 0.3125 0  1 0.1875 0  1 0.3125 0  0.8021696218581627 0.1612893947866073 0  0.06154922295426143 0.1239401126946708 0  0.9359375 0.4359375 0  0.4666158024849897 0.2691515918155015 0  0.2318201265217025 0.2064974250277526 0  0.1565954253579966 0.163548931248684 0  0.1598132503680848 0.2787147500325551 0  0.3146529991605639 0.3510876378205264 0  0.1461873209418734 -0.4401719547112218 0  0.06109554988524315 -0.2553448223752314 0  0.8054950308560754 0.05642265388485406 0  0.4705417494919759 0.3853316336952532 0  0.6948472567465137 -0.09576914366275428 0  0.8802828472348889 -0.03411067436561471 0  0.6788075634946739 0.2974194205806069 0  0.2155048659603867 -0.2571798415059032 0  0.8131223143423806 -0.2867828950971606 0  0.4330798005432235 0.1671274900735726 0  0.6015279126162612 -0.2812631921256725 0  0.8061636571464289 0.3703766630361714 0  0.7008230445061777 -0.1521431611555928 0  0.7611268409371427 -0.2356943115200007 0  0.204801534004265 0.3789209409594009 0  0.8638466246958771 -0.1852904012264462 0  0.2449006736431132 0.4424182882803837 0  0.7552800864046191 0.2678006649959446 0  0.5983639638906616 0.364113435029236 0  0.1956559506814437 0.07728120357742588 0  0.3527670268164208 -0.3679530902434796 0  0.7530364577483249 -0.1737613922916912 0  0.4535919187979363 -0.03098929125484726 0  0.8824869791666666 0.3336588541666667 0  0.8814453125 0.4451171875 0  0.5582987942628018 0.122421666543858 0  0.6817532446064829 0.1939001801354731 0  0.3830295138888889 0.4450968952922078 0  0.4140603937012542 -0.4478866662728389 0  0.6560130086346877 -0.2270273437788441 0  0.5535864501303012 -0.1939408014608329 0  0.890203140221684 0.09483143054272689 0  0.7043857725999024 0.09398089002080401 0  0.5105843922695154 0.3016828014338627 0  0.05365910753708377 0.2315110031682004 0  0.616904573672261 -0.03788133665638646 0  0.5231769258947843 -0.05223175368592374 0  0.5242616512687603 -0.1076971421439826 0  0.2811304183942898 -0.3224437235711544 0  0.650302973237622 0.2370722302085519 0  0.3927483139621257 -0.0337585495470985 0  0.8034595960585199 -0.002746165724178917 0  0.7738337841682438 0.4496376207663251 0  0.7193737507158268 0.454685447650112 0  0.482525916480686 0.05282571699916763 0  0.2533501157346781 -0.2190504579996762 0  0.3118487924482242 0.07029301265703199 0  0.6257598847669529 -0.08958366845694821 0  0.1354166666666667 -0.3044394841269841 0  0.04166666666666666 -0.34375 0  0.3956448985530264 0.1174149462065157 0  0.8102897701818546 -0.1061215761791651 0  0.2641154190013624 0.3344469561943119 0  0.6428522207700129 0.006879458656365835 0  0.05271458179508221 -0.144153052663993 0  0.7021551360070266 0.3921457280225779 0  0.5692125776683764 -0.3671487361149715 0  0.5206162811937604 -0.4513484122900701 0  0.6001838442201555 -0.4545944300870244 0  0.2597716608242787 -0.08816536015228216 0  0.4040584599473195 -0.1820410863215325 0  0.1480337679295207 0.3941560631483065 0  0.1344356707112281 0.4466251177415841 0  0.7114696411829317 -0.001608261092117404 0  0.7585704698442475 0.07519263459446288 0  0.2189131956390871 -0.459779314918403 0  0.1867629675602279 -0.3633286306818253 0  0.5891061157157076 0.240359666592761 0  0.6223414373308711 0.143380839165121 0  0.268358222364537 0.1586246524467934 0  0.3265879848129173 -0.2630208217808775 0  0.1267095595787346 0.203478723899918 0  0.1115202922226038 0.1421997933884982 0  0.3128688392940204 -0.4273900254820992 0  0.550724900485678 0.4253360991633188 0  0.7142608810459106 -0.2615095297785126 0  0.7045869185243887 -0.3128173102112571 0  0.890625 0.234375 0  0.953125 0.265625 0  0.2111812642821677 0.3286209446459139 0  0.9590293078204456 -0.40625 0  0.953431269039847 -0.3564280613591996 0  0.04097069217955424 0.40625 0  0.04656873096015299 0.3564280613591996 0  0.1078743037981226 0.3541621766048062 0  0.8659845200549334 -0.4449870822588186 0  0.8551030193477942 -0.3910322088540965 0  0.895549484730559 -0.3549432328201375 0  0.1001448316533418 -0.4575322375577173 0  0.05118208561506519 -0.4419686758719261 0  0.04538690476190477 -0.3921130952380952 0  0.08705357142857142 -0.3608630952380952 0  0.934578184766147 -0.4499819577901031 0  0.06542181523385285 0.449981957790103 0  0.4209742610787546 0.3877307378014485 0  0.6892933149186874 -0.4128078926197619 0  0.5016602447608134 -0.3223202818883081 0  0.424708224255176 -0.2564823146480762 0  0.4461434414596256 -0.3362808921393075 0  0.1157366497274 0.2968301623147321 0  0.6567470139666319 0.09074906739059843 0  0.3068514418212805 -0.04984761332251057 0  0.9476648899455756 -0.2620460096120686 0  0.78125 -0.4646337365591398 0  0.03926297647932376 0.2768400102441044 0  0.9533550797297708 -0.1977392657588142 0  0.9527103964454354 0.3894279167759706 0  0.2353819829906344 -0.3074270857113269 0  0.2025020918903223 0.2580682236912121 0  0.2863058150882537 0.2610466727873408 0  0.6150887328904477 -0.1747321627751088 0  0.8727664836424451 0.1395521779140142 0  0.6605598814208968 -0.3291673835979868 0  0.6169021825537381 0.04705482019524916 0  0.7368032775854767 -0.3469427971948783 0  0.1860361531232411 -0.1498033214218482 0  0.3902805817595935 0.2074976073395954 0  0.3238856295092695 0.1713328169873417 0  0.8672019878241604 -0.231003511648933 0  0.34375 -0.4656723746660681 0  0.8900518111551308 -0.08145733957748388 0  0.4980079538413489 0.3482274962401366 0  0.08607184684322766 -0.04651603589574766 0  0.9534909921249505 -0.1081766703815712 0  0.03351540945410275 -0.21875 0  0.6029348768134167 -0.3979291661998488 0  0.2426590061010816 0.009856893389563866 0  0.8300303335119448 0.1981646874421223 0  0.8007666563923632 0.2685464686277397 0  0.7944457457330046 -0.3280764414153054 0  0.354945391415268 0.3283916701389701 0  0.3718870429971002 0.2715161255428191 0  0.469174305301605 0.4668568860649182 0  0.03268135998175443 0.03125 0  0.106123216465206 0.08217225645811239 0  0.9674181280189792 0.09375 0  0.9008631654715364 0.02977778168052179 0  0.3460622266465123 -0.07249748568796564 0  0.65625 -0.4663284842555405 0  0.6641170592918088 -0.1810276795018274 0  0.7640641356245881 0.3526910747946099 0  0.71875 -0.4670563047110247 0  0.9674044371800951 0.15625 0  0.628188446621146 0.3287350801288583 0  0.564541439588331 -0.03090678129954984 0  0.2887102757769993 0.4594577545052955 0  0.3730035247212493 0.02587884905934738 0  0.1670042438271606 -0.2726346281033781 0  0.1029214244136877 -0.2719750205516964 0  0.1216110562899777 -0.1963184897747047 0  0.03132186710806806 0.15625 0  0.03135801750544719 -0.03125 0  0.9674181280189791 0.03254902251360571 0  0.9672619047619048 -0.03271259919247643 0  0.53125 0.4687030372638311 0  0.9672247023809524 0.4672247023809524 0  0.8549300820612323 0.06658057837217626 0  0.7913656442501065 0.1064768300461049 0  0.5566958354041391 -0.2717456225365217 0  0.84375 0.4685102035142349 0  0.6927172269043159 0.3391142191030205 0  0.5412543265875658 0.02226818886557769 0  0.03268135998175442 0.09130992168641752 0  0.1608245756071075 -0.3987666180652481 0  0.8515983767111526 0.3671358717793592 0  0.5845670509037912 0.1649582521680292 0  0.4245881077309097 -0.06352872660120173 0  0.478957011000803 -0.1280990614989385 0  0.59375 0.4674327554079114 0  0.2465230623150796 -0.1302181761451804 0  0.3890174257224638 -0.1347613575181361 0  0.3693171463092907 -0.2073780856548713 0  0.3123621931231614 -0.1717956761906976 0  0.7891657343897208 -0.1969793404095042 0  0.3301014492185614 0.03111579699596851 0  0.7205567042350118 0.05308976274621625 0  0.4328319679971933 0.2097370445018238 0  0.4377781397932994 0.1246384891613126 0  0.9121050645826939 -0.1177675987048197 0  0.3528441414706853 0.1147718893470681 0  0.5028618249991584 -0.2788439863735087 0  0.478807183964666 -0.2414702054865785 0  0.5001424946990169 -0.2036261579587533 0  0.2435679639845469 -0.3979773453384843 0  0.3357866423626453 0.3904422855232556 0  0.09608889991638016 -0.1341181284869639 0  0.3475016520746209 -0.1247847302434698 0  0.8664309269291482 0.2947870850103178 0  0.5782320045512089 0.06491966714939602 0  0.9183392534390151 0.1789464931219697 0  0.4051720596486863 0.05270163662506377 0  0.04166666666666666 -0.2958078576550348 0  0.03700211762058244 -0.1052789726297004 0  0.7830028347797752 -0.07243358573902195 0  0.8482505001199396 -0.08885048453587233 0  0.5179023031810392 0.1078589866312691 0  0.8419726978187363 -0.01817986746779309 0  0.6314453136847292 0.4503406694248059 0  0.2471095250692366 0.1204544918457761 0  0.224405060052276 -0.1651054565568229 0  0.96875 -0.5 0  0.03125 0.5 0  0.8752251141853276 -0.3183123816917263 0  0.1786119022364434 0.1289014999958751 0  0.1922450785720572 0.1839026034548124 0  0.4102481353452698 0.3482180574537146 0  0.1815665809227761 -0.2345041773544229 0  0.2275120745861004 -0.06307558635811546 0  0.21875 0.5 0  0.09471849422856776 -0.2316935458553545 0  0.4603485824244765 0.009136159895557409 0  0.4289734231366115 0.2851703561064698 0  0.5704065637993748 0.2768514958651724 0  0.4671877609621192 -0.172093724344957 0  0.7509481789477271 0.2271660230369262 0  0.627372678684316 0.3924275950524838 0  0.1676173900221548 -0.01021754642065428 0  0.226529876052992 0.04701100835875117 0  0.2415663965690663 0.2461572470685062 0  0.7065424692299191 0.1620012855009159 0  0.7177086185615361 0.2823525599858842 0  0.7714431494743853 0.3060836832643338 0  0.28125 -0.5 0  0.4745912824138703 0.09303179071295106 0  0.2907310791007304 0.418377779617627 0  0.3502559878117914 0.4683425117995431 0  0.8142531568972083 -0.3883684078618216 0  0.5221291418530971 -0.4099804751125142 0  0.2907756673070359 0.3024524452377289 0  0.5601260018683756 -0.4596892996510204 0  0.296875 -0.4636147051081081 0  0.9073541046866916 -0.2618325900951585 0  0.6584568474406267 -0.3858137615332971 0  0.04400977504537832 0.1934295815363134 0  0.4251710911766979 -0.1030657877441609 0  0.7267030651545842 -0.3861917282772 0  0.913409922269502 0.4685372579934268 0  0.2939920200624141 -0.1370050955494864 0  0.6493381467982114 0.1718265789622933 0  0.5629802672498994 -0.2325299298923858 0  0.3873622211174456 -0.3903392115004506 0  0.1008973668935884 0.4682176445844354 0  0.90625 -0.5 0  0.4723453298417278 0.1710545699368549 0  0.04792209261507289 -0.06721676996240962 0  0.5741278806359857 0.39440063670949 0  0.9393643465909091 0.3024680397727273 0  0.03125 -0.5 0  0.8938185278636107 -0.1575064144228348 0  0.40625 0.5 0  0.4062410200477673 -0.2215203551994402 0  0.1601035484872193 -0.2020423168080443 0  0.4447597648302358 0.04452274402909635 0  0.03938442863664034 -0.1804913825045467 0  0.5554219440637534 0.2174350268826064 0  0.5149496638431436 0.2193668675946207 0  0.6322836210832357 -0.2576745735813544 0  0.1039624095827874 0.009440033482000915 0  0.84375 -0.5 0  0.8316104367526831 -0.4630938523881207 0  0.1677564700618448 0.04778487899530628 0  0.3707775125962732 0.4079419704816758 0  0.1710339375389255 -0.1136935987509865 0  0.6249794432992295 -0.312688467802351 0  0.7746868918102174 -0.4273449605475004 0  0.3581764349226711 -0.2839586722388526 0  0.3122219891843762 -0.344510889614232 0  0.4663856853412923 -0.3946386146997261 0  0.5298466124078346 -0.3475507757745929 0  0.5198457645962333 0.1470509679891785 0  0.1794810856718241 -0.4613595366215816 0  0.15625 0.5 0  0.8602169645409112 0.4135217926377163 0  0.7880860275751911 0.4146963618569519 0  0.2305544317208038 0.4070679123220552 0  0.2212522719602224 -0.02158137563313911 0  0.65625 0.5 0  0.3047796284522751 -0.2934363844468387 0  0.586252115318963 -0.3338761933013834 0  0.4358422294876758 -0.4169577475210846 0  0.2899419011271067 -0.0157434691674127 0  0.2348263035637412 0.3571745106909983 0  0.2800928009716169 0.1032456135672833 0  0.8407558182144579 0.1610985987589757 0  0.6098386979210781 -0.1246235387975791 0  1 -0.15625 0  0.9310234229212024 0.09908558980444652 0  0.7658808322196414 -0.01210047037744898 0  0.7309236133691096 0.3689882746239372 0  0.07299692241920436 0.2626030906479344 0  0.8452997647718948 0.3303355937673222 0  0.7939551892964204 -0.2542867392742431 0  0.6465454278358694 -0.05941411478451597 0  0.4865488905902531 -0.04762326655265138 0  1 -0.28125 0  0.9646019673949086 -0.2968030923755842 0  0.414951920126153 0.4639577075493869 0  0.3786364057039309 -0.4557169363468657 0  0.14116951837657 0.236765741129407 0  0.08814363401878907 0.2184320794624656 0  0.722818289044921 -0.1213078768489178 0  0.8089219671085536 0.4585920303753958 0  0.3998110205139155 -0.3559194091511482 0  0.5347749555204664 0.3416178395489294 0  0.3961525371789253 -0.2816258821692089 0  0.1845458112673972 -0.0801985510893361 0  0.7917946161395097 -0.03734246238640608 0  0.4997612616674834 0.2529760993608814 0  0 0.21875 0  0.1939908650025062 0.2949254505138987 0  0.171875 0.4677879119362977 0  0.2080081478787794 0.4654192612156415 0  0.4467241741033641 -0.4645231224912084 0  0.3301128544464299 -0.395855721747366 0  0.5313676667040548 -0.01733920159513172 0  0.9191231021469646 -0.1864448939152111 0  0.2990608857109114 0.3834418188574707 0  0.5068689952403835 0.1835513036467219 0  0.3224843687145613 0.2542589090571519 0  0.70536726571007 -0.05789246393377681 0  0.7298348780195226 -0.08508746191472813 0  0.7635731117953343 0.1611315119006533 0  0.1241001291300454 -0.3926172875536443 0  0.03536626344086021 0.3119945784845546 0  0.8562774025702972 0.2230475926600472 0  0.8412875285422331 -0.2554943557598966 0  0.4885223099634368 -0.4664423838855729 0  0.3443098735263299 -0.2324021582023746 0  1 -0.21875 0  0.825634717031693 -0.1902985383207809 0  0.8338972786966365 -0.1335239394350325 0  0.7851788229704928 -0.1307413812686234 0  0 -0.46875 0  0 0.46875 0  0.96875 0.234375 0  0.921875 0.25 0  0.9636058428474986 0.1928366856949973 0  1 -0.46875 0  0.443370848500776 0.3604387534572937 0  0.8434251473463654 -0.3040220709484407 0  0.1202480293042694 -0.05842087447401086 0  0.1560162653258311 -0.05349752330603341 0  0.6592867239460493 -0.1040338638975309 0  0.6613937670422714 0.3993087155344293 0  0.6853650088470161 0.4646311744823544 0  0.676812213109188 -0.0001835471385706984 0  0.9693170099101154 0.3591452686933191 0  0.9079182942708334 0.3590901692708333 0  0.2111776846137324 0.1110301473229664 0  0.5615601656219664 -0.1112063882732038 0  0.5399923771257313 -0.1404717844113312 0  0.9239616319554318 -0.3762972525205408 0  0.07793513233145292 0.3746026205451752 0  0.3515299620679388 0.1944584573400799 0  0.5980793813919356 0.3090398891376952 0  0.3697017416161853 -0.3361841915516602 0  0.7827525429285294 0.1902584895231504 0  0.4038474393815151 0.4176345537069741 0  0.9006834674806058 -0.441962351129831 0  0.1638196394140049 -0.3375762856655454 0  0.109375 -0.3348214285714285 0  0.4449526488959364 0.2421573011952224 0  0.969079488368185 -0.453125 0  0.03092051163181482 0.453125 0  0.705132448872733 0.1280016039592823 0  0 -0.15625 0  0.9662971803968837 -0.2312895695390757 0  0.6804311804441543 -0.252217490940922 0  0.470588008374578 -0.3604914535327011 0  0.5673299196167023 0.3507160213032819 0  0.9683437186992464 0.4213450333308971 0  0.5929228416501644 0.124948389168467 0  0.7259277319928619 0.4192407877857853 0  0.9689117625117584 0.3254645175243007 0  0.09871299961743694 -0.1693777311134827 0  0.9022120786064963 -0.005915727915088032 0  0.9677803921507897 -0.140886711712419 0  0.15625 -0.5 0  0.6556026400452561 0.2714745392822912 0  0.2151654657723874 -0.3806529880101548 0  0.6367723249803395 -0.1999238883529505 0  1 0.28125 0  0.5091807612973074 0.03233984264454012 0  0.1111692190328293 -0.1025554467702651 0  0.2607826221252702 0.04359554346325989 0  0.139263622228813 0.009695020554834649 0  0.4319338150911408 -0.3064700910531188 0  0.9013596094625967 0.06325935923815758 0  0.7501867884357831 -0.1404720560427974 0  0.583535564744927 0.198717220852982 0  0.09310191748791363 0.0421094174371366 0  0.2514412753859041 -0.4667621001446638 0  0.231240579811817 -0.4288783301284437 0  0.2720237773537547 -0.356272380435093 0  0.2138011468370689 -0.3322404652514032 0  0.2760960437313638 -0.4049601305647452 0  0.9672619047619048 -0.06559684007246344 0  1 -0.09375 0  0.503951343479162 0.07793999005085955 0  0.4025310642006545 0.08537078061338779 0  0.1376407119674055 0.07340642377017587 0  0.6616790329183714 0.3263011904341747 0  0.6508567665970161 0.2044340815794427 0  0.7200076387258544 0.2168602721511837 0  0.9244811520726889 -0.03071699405849063 0  0.40625 -0.5 0  0.8783480408573733 0.2645089863808756 0  0.8985625426056991 -0.2942097532968903 0  0.9131895123106061 0.3221916429924243 0  0.5391660374635742 0.2860643359077795 0  0.8306129929314747 0.3930379436216727 0  0.8241134407124494 0.2326803089489853 0  0.5863904729451449 -0.1909094046732866 0  0.5219772553569381 0.4098268064011384 0  0.4697145766770012 0.4346466060860819 0  0.834408981043773 0.2882479521060858 0  0.9700610668628247 0.292941799411526 0  0.53125 -0.5 0  0 -0.40625 0  0.921948955286812 0.4046135447131881 0  0 0.34375 0  0.9715223016178746 -0.3289585083501611 0  0.2843281789274164 -0.2339495891460157 0  0.282074675485651 -0.1997372694916611 0  0.3390104185554586 -0.1952283371745402 0  0.43505575316856 -0.1734667653861679 0  0.5477018843399847 -0.3907972400491965 0  0.1347269197774031 -0.2726346281033781 0  0.6830225254924888 -0.1255263279598985 0  0.82133737266828 0.1358440027734388 0  0.3369634844653059 0.1423348527649167 0  0.78125 0.5 0  0.1189066658390907 -0.4239360689519054 0  0.1304909430351696 -0.4682789166123517 0  0.1763576847930843 -0.4295152031157003 0  0.8856470907302146 -0.4700099776704723 0  0.8067757085539838 -0.3574253387653867 0  0.3948584718349872 -0.4218282633938194 0  0.8560709812970073 -0.05668466835130782 0  0.7571609422030634 -0.3992291630353919 0  0.112898213007803 0.174380201239289 0  0.525381827125334 -0.3012211372181754 0  0.4270636227063173 0.3166875777133717 0  0.34476683120998 0.3602681190218506 0  0.3242799334811836 0.3210646968731066 0  0.3802622291311838 0.24112679205273 0  0.3240020690838775 0.2117669198230146 0  0.7883221511258034 0.3326438433942652 0  0.6877084745441311 -0.4487900960386411 0  0.6344989013539745 0.1137668068194832 0  0.3909080342497244 -0.001280572345718746 0  0.2708440971411723 0.2328449797532986 0  0.936164668250157 0.03124767907396714 0  0.9687193306371976 0.001269649787875468 0  0.7496078317433578 -0.4557274451930592 0  0.07502494132812479 0.3434711557636759 0  0.03432796908400443 -4.887432674689947e-05 0  0.5625135869722264 0.468736398180713 0  0.9687225025824728 0.1250002872272244 0  1 0.34375 0  1 0.21875 0  0.46875 -0.5 0  0.09375 0.5 0  0.90625 0.5 0  0.34375 0.5 0  0.59375 0.5 0  0.84375 0.5 0  0.53125 0.5 0  0 0.15625 0  0.28125 0.5 0  1 0.15625 0  0.71875 -0.5 0  0.65625 -0.5 0  1 -0.34375 0  1 -0.03125 0  1 0.03125 0  1 0.09375 0  0 -0.09375 0  0 -0.03125 0  0 0.03125 0  0.46875 0.5 0  0 -0.21875 0  0.34375 -0.5 0  0 0.28125 0  0.78125 -0.5 0  0.09375 -0.5 0  0 0.40625 0  1 -0.40625 0  0.21875 -0.5 0  0.59375 -0.5 0  0 -0.34375 0  0.71875 0.5 0  1 0.40625 0  1 0.46875 0  0.96875 0.5 0  0 0.09375 0  0 -0.28125 0  0.7588060536313481 -0.2045025905805094 0  0.02715033042865917 -0.421875 0  0.5018984327564545 0.385738469315547 0  0.4128775604186648 0.1433893048685385 0  0.3194328819492967 0.4642482194752992 0  0.589681971911625 -0.2510211620061576 0  0.5002462872267541 0.4666322076143943 0  0.2199395582404956 -0.2237351787748465 0  0.2439500933759697 -0.274982480549911 0  0.1968567242829331 -0.2824881117036037 0  0.9009463801585227 0.2048928732804924 0  0.02883570458802242 -0.265625 0  0.1292853699983774 0.327893311250914 0  0.3135613879731691 0.004652542646301671 0  0.06340146468489422 0.09321667319241457 0  0.06331906458815785 0.1558903498673229 0  0.03073409879011188 0.122117424710688 0  0.06433578008438356 0.02864467129942589 0  0.03213480518921497 -0.467865194810785 0  0.06466203230308783 -0.2246899444780054 0  0.07030778929444456 -0.2846642463642405 0  0.9048003213545025 -0.05441377907377719 0  0.7829720288091313 0.1366023319978198 0  0.6203193568374443 0.2501609103856433 0  0.8713232216379475 -0.004516690169503651 0  0.2329782421603252 -0.1952433458438002 0  0.9654905172388039 0.06314951125680286 0  0.09059957963122159 0.1102739349810368 0  0.1044727730894473 0.4369283719179863 0  0.1230244609267057 0.4122538713666499 0  0.4232030861152866 -0.03309830120324243 0  0.1389513858117438 -0.119681257434451 0  0.5592051440602465 0.09052990692531192 0  0.5802845643455328 -0.3036194506455763 0  0.2902427186332352 -0.07752258870131169 0  0.3597056072068008 -0.04143850408375564 0  0.7669178597713643 -0.3414611920533102 0  0.2135389269787182 -0.1365968512619934 0  </DataArray>
</Points>
<Cells>
<DataArray  type="UInt32"  Name="connectivity"  format="ascii">116 374 442  105 355 414  215 253 712  151 274 371  139 267 445  61 474 601  148 307 497  99 224 482  90 294 434  134 264 333  130 228 563  118 225 428  33 423 551  200 529 564  145 494 666  249 404 514  48 422 611  230 374 735  18 317 526  124 238 447  28 486 738  159 495 514  117 404 514  102 317 526  113 354 658  27 338 413  80 298 299  36 284 320  99 222 269  28 264 476  91 223 326  233 403 477  150 557 558  33 368 609  19 473 512  114 268 379  123 418 460  102 317 436  133 303 656  248 374 735  37 374 442  70 244 352  108 239 364  140 281 327  350 397 544  210 272 365  74 273 642  160 454 581  144 285 543  77 372 555  77 555 627  66 425 592  114 379 632  139 394 445  48 225 428  131 276 446  134 333 440  228 510 563  30 269 292  30 222 269  89 293 294  53 262 400  26 227 608  54 703 721  85 260 436  29 294 434  99 269 270  282 362 665  63 282 621  145 239 319  126 323 407  155 252 431  100 275 728  98 203 419  161 241 511  22 275 420  203 515 569  72 441 507  26 342 732  227 468 608  179 334 592  67 224 482  223 326 537  104 283 575  83 220 636  25 402 538  31 243 261  70 244 245  218 464 471  71 237 464  209 332 724  61 601 603  74 274 371  171 599 600  75 278 485  16 250 639  78 250 481  143 435 475  143 265 435  124 388 389  81 388 389  119 240 308  119 240 383  69 259 539  212 500 550  84 283 284  36 320 440  65 206 506  132 277 325  292 560 663  86 663 717  29 294 295  149 439 615  90 311 472  14 311 662  223 456 523  39 335 491  92 225 336  108 239 319  156 538 539  63 329 511  182 622 707  66 406 490  95 258 708  96 598 722  169 465 598  344 583 729  186 360 731  94 211 622  217 384 451  233 579 737  38 321 396  226 351 562  275 420 728  102 338 339  211 302 546  131 308 657  64 403 477  104 283 284  17 283 575  355 414 714  105 356 417  262 393 582  137 332 724  169 468 593  107 267 377  145 319 397  108 210 365  33 226 423  147 251 580  18 277 325  110 411 412  111 359 452  137 262 461  168 591 736  35 354 382  309 345 740  124 366 388  34 375 421  37 248 374  154 268 378  116 244 245  8 369 522  328 402 646  249 495 514  225 336 429  118 225 429  119 271 553  103 243 261  46 548 549  107 377 742  27 392 651  121 433 709  45 232 367  232 367 480  252 418 460  35 258 607  17 237 575  124 389 390  202 578 627  77 232 480  323 407 742  126 323 459  182 282 621  128 282 665  147 405 551  128 376 405  36 284 322  268 379 458  177 510 563  131 240 308  131 234 427  132 277 490  277 406 490  158 349 656  133 349 656  134 320 440  104 284 320  22 275 462  64 385 451  95 217 324  136 384 451  209 356 417  32 357 582  103 321 396  38 308 321  37 345 740  21 309 739  236 487 520  141 435 475  141 475 576  143 475 487  140 228 448  143 487 520  142 520 613  144 286 542  39 319 397  202 232 444  16 250 251  148 497 507  148 206 506  68 499 533  88 310 439  70 243 255  154 375 421  151 274 567  73 399 725  219 372 498  231 372 555  114 268 378  115 268 633  95 325 561  35 354 398  68 381 499  25 223 456  90 293 294  84 221 499  158 346 656  31 271 553  220 508 596  160 314 554  161 511 577  22 462 463  93 328 386  25 328 402  164 545 570  166 541 571  112 400 452  167 465 722  167 330 359  32 393 582  120 424 483  120 227 468  246 315 713  215 414 714  152 430 438  171 391 603  172 234 427  172 422 564  455 540 723  173 296 297  80 296 297  76 395 614  231 372 498  176 630 631  75 246 713  228 448 510  81 304 306  139 309 739  120 334 425  334 425 592  179 488 718  95 387 638  180 339 653  181 338 339  181 419 650  182 282 362  6 362 711  93 328 726  224 353 432  51 270 479  99 270 518  186 360 683  94 211 302  182 362 711  313 536 574  188 313 536  55 493 584  293 467 643  88 439 615  57 288 289  79 435 634  4 265 534  273 478 642  209 399 716  201 370 719  201 358 720  12 242 312  86 307 497  58 290 291  144 397 544  15 286 542  92 422 564  20 529 727  201 370 721  125 578 700  314 578 627  22 463 515  98 203 241  85 317 436  65 206 316  205 411 412  65 205 412  85 316 517  30 222 287  67 224 432  207 392 524  208 478 642  193 273 478  9 704 716  209 399 725  82 210 272  41 249 404  27 302 413  302 413 546  69 401 528  31 500 527  213 583 729  183 344 583  101 351 562  48 247 586  170 246 315  170 315 602  337 644 741  216 533 547  258 385 708  217 385 451  366 447 710  218 471 738  24 336 429  219 348 655  83 255 550  17 237 347  229 381 705  17 220 229  85 260 287  67 432 524  259 538 539  68 326 537  11 224 353  48 225 422  92 225 422  33 226 351  128 282 453  110 277 406  26 205 411  246 474 601  152 327 438  221 381 705  156 229 381  116 230 374  116 244 501  24 219 498  76 454 616  45 232 444  100 276 446  135 233 373  48 234 247  131 234 446  56 457 504  83 318 347  71 318 620  150 318 620  34 245 558  41 344 364  360 660 731  82 272 383  20 272 365  241 329 511  98 241 329  196 358 441  72 441 720  255 500 550  243 255 500  8 369 590  244 352 522  245 557 558  70 245 557  75 246 485  130 278 485  100 247 728  101 420 728  123 354 658  113 309 740  41 210 249  82 210 249  147 263 580  78 496 580  147 251 552  252 431 606  138 369 590  253 631 730  253 630 631  35 398 607  132 387 638  70 255 492  83 255 492  151 299 568  23 567 602  257 298 299  73 257 299  95 258 387  35 258 387  117 402 646  159 527 528  222 287 489  260 287 489  119 261 321  103 261 321  112 262 393  112 262 400  118 214 368  78 219 348  141 435 634  79 265 435  79 266 437  49 266 697  107 470 513  107 267 415  19 379 458  19 305 458  87 301 733  87 733 734  301 449 733  87 290 301  159 401 528  82 249 495  20 240 272  240 272 383  273 599 600  74 273 600  170 246 601  23 315 602  135 462 597  100 276 373  276 373 579  131 276 657  18 204 277  110 204 277  176 535 632  75 253 630  26 205 280  65 205 279  205 280 648  72 280 648  140 281 521  61 281 521  226 423 453  128 423 453  84 221 283  17 221 283  84 216 337  84 284 322  175 395 623  39 335 532  286 454 624  76 286 454  85 287 517  206 316 517  89 294 295  89 295 559  88 289 629  191 502 503  291 560 663  87 292 560  86 312 531  206 307 717  292 663 717  52 450 643  89 288 300  88 295 410  29 295 410  289 295 559  88 289 295  208 640 641  80 530 640  43 257 298  174 626 706  80 297 298  151 371 530  73 299 568  163 300 450  165 301 449  235 469 565  27 392 469  36 322 443  129 333 440  124 366 447  81 304 388  19 305 512  177 473 512  177 306 594  40 448 510  86 312 497  148 206 307  38 308 657  119 308 321  113 309 488  21 309 488  13 310 502  190 466 467  12 312 691  162 313 584  91 223 523  160 454 616  44 314 554  23 315 714  23 355 714  65 204 316  85 317 426  204 426 659  317 426 659  318 347 588  237 347 588  39 319 491  200 335 491  104 320 471  134 320 471  138 369 396  103 369 396  434 472 647  157 322 443  168 470 736  32 323 470  217 324 384  62 324 384  18 325 654  325 561 654  149 533 547  91 310 439  50 327 505  140 327 505  162 331 386  93 331 386  211 622 707  98 546 650  112 330 548  46 330 548  189 604 605  93 331 604  137 332 461  106 332 461  79 266 333  129 266 333  120 334 483  21 334 483  92 335 619  335 532 619  175 532 619  24 498 623  84 337 741  157 644 741  207 392 651  102 338 652  180 561 654  62 339 653  187 457 504  7 341 664  465 598 722  201 719 732  96 370 719  145 350 397  97 343 494  239 364 595  344 364 595  139 309 345  37 345 394  129 266 346  49 266 346  17 220 347  83 220 347  118 348 496  118 368 496  14 349 662  133 349 662  145 350 666  198 350 678  33 351 609  214 368 609  70 243 352  103 243 352  121 353 432  121 353 709  179 382 718  113 354 382  256 356 635  23 256 355  73 256 356  105 356 635  126 712 730  126 414 459  196 441 516  7 359 664  97 660 731  360 660 661  183 660 661  93 612 726  128 376 665  108 210 364  41 210 364  200 491 637  200 529 727  28 366 649  366 388 649  122 367 509  153 367 509  263 368 496  33 263 368  352 369 522  103 352 369  195 341 370  96 341 370  208 371 640  371 530 640  153 367 480  219 372 618  275 462 597  100 275 597  154 375 442  116 375 442  34 245 375  116 245 375  59 376 405  377 407 742  47 377 407  37 378 394  114 378 394  19 278 535  19 379 535  139 345 394  47 380 445  221 381 499  156 537 538  35 254 382  179 254 382  119 271 383  82 271 383  136 384 569  62 384 569  155 398 607  64 403 431  25 328 386  162 456 523  132 254 387  35 254 387  115 305 389  81 305 389  115 421 633  115 389 390  124 238 390  34 238 390  170 391 587  74 391 587  121 235 469  121 392 469  393 591 736  112 393 591  380 394 445  114 380 394  285 543 614  76 543 614  38 396 737  138 396 737  144 397 715  39 397 715  123 354 398  155 252 460  194 257 399  73 257 399  53 400 685  69 259 401  117 259 401  117 259 402  259 402 538  403 431 606  138 403 606  213 612 726  41 344 729  59 405 484  26 227 411  227 411 556  126 407 730  253 712 730  163 300 570  408 545 570  165 301 571  409 541 571  149 410 547  29 410 547  110 406 556  110 411 556  110 204 412  65 204 412  181 338 413  98 419 650  105 357 459  105 414 459  21 267 415  178 424 483  11 224 519  11 416 519  105 357 417  137 357 417  123 230 418  8 230 418  181 339 419  62 339 419  161 420 617  22 420 617  115 390 421  34 390 421  172 422 611  172 529 564  405 423 551  128 405 423  169 468 608  46 424 593  66 227 425  120 227 425  85 316 426  204 316 426  20 240 572  20 427 572  118 214 428  48 214 428  348 429 655  118 348 429  10 599 696  10 430 599  64 385 431  155 385 431  392 432 524  121 392 432  121 235 433  56 235 433  157 434 644  90 434 472  264 476 634  141 476 634  207 651 652  207 260 436  79 265 437  192 437 625  281 327 438  171 281 438  91 326 439  149 326 439  129 303 440  36 303 440  358 441 720  242 441 507  37 378 442  154 378 442  36 303 443  133 303 443  202 363 444  146 363 444  267 377 445  47 377 445  100 247 610  100 446 610  71 447 710  150 238 620  236 487 645  40 475 487  270 449 733  51 270 449  300 450 643  300 566 643  135 233 477  135 462 463  112 330 452  330 359 452  63 282 453  226 453 577  231 395 616  76 395 616  1 455 540  162 386 456  25 386 456  94 340 504  187 340 504  115 305 458  115 268 458  32 323 459  32 357 459  155 398 460  123 398 460  106 461 573  136 463 525  135 463 525  136 515 569  136 463 515  218 366 710  104 464 471  167 330 465  46 330 465  90 311 467  190 311 467  293 566 643  90 293 467  424 468 593  120 424 468  27 302 469  302 469 565  168 548 549  168 470 513  471 486 738  134 471 486  133 443 647  133 472 647  19 278 473  130 278 473  140 228 521  130 228 474  40 306 576  40 475 576  304 388 649  141 304 476  136 451 525  64 451 477  193 478 585  270 479 518  185 479 518  372 480 618  77 372 480  78 219 481  153 480 618  99 222 482  67 260 489  178 415 483  21 415 483  109 484 552  109 552 699  246 474 485  130 474 485  28 264 486  134 264 486  40 448 645  40 487 645  179 334 488  21 334 488  67 482 489  222 482 489  66 254 490  132 254 490  108 319 637  319 491 637  150 318 492  83 318 492  188 313 584  188 493 584  145 239 494  97 344 595  82 271 495  159 271 495  78 348 496  263 496 580  242 312 497  242 497 507  395 498 623  231 395 498  84 216 499  216 499 533  212 500 527  31 243 500  8 230 501  116 230 501  88 503 629  191 503 629  310 502 503  88 310 503  56 235 504  94 302 565  236 520 613  140 448 645  148 279 506  65 279 506  205 279 648  148 279 507  69 508 596  212 527 528  250 481 509  153 481 509  40 306 510  177 306 510  63 453 577  63 511 577  81 306 594  81 305 594  107 415 513  178 415 513  159 401 514  117 401 514  161 241 617  203 241 515  242 441 516  12 242 516  30 287 517  30 206 517  185 416 519  185 518 519  99 518 519  99 224 519  143 520 534  143 265 534  228 474 521  61 474 521  8 501 522  244 501 522  91 313 523  162 313 523  67 260 524  207 260 524  451 477 525  135 477 525  180 339 526  102 339 526  159 271 527  31 271 527  212 508 528  69 508 528  172 427 529  20 427 529  151 299 530  80 299 530  291 531 663  197 531 628  144 285 715  175 395 614  149 326 533  68 326 533  4 534 669  379 535 632  176 278 535  13 310 574  13 536 574  156 381 537  68 381 537  223 537 538  25 223 538  220 229 596  156 229 539  297 706 723  174 706 723  165 409 571  0 409 541  198 350 544  144 286 543  76 286 543  15 542 668  144 542 544  163 408 570  2 408 545  98 329 546  211 329 546  216 337 547  29 337 547  178 424 549  46 424 549  168 513 549  178 513 549  83 550 636  212 550 636  33 263 551  147 263 551  405 484 552  147 405 552  119 261 553  31 261 553  199 589 624  160 314 555  314 555 627  66 227 556  66 406 556  150 492 557  70 492 557  34 238 558  150 238 558  89 288 559  288 289 559  87 290 560  290 291 560  95 324 561  180 324 561  161 420 562  101 420 562  177 473 563  130 473 563  200 335 564  92 335 564  94 504 565  235 504 565  89 300 566  89 293 566  23 256 567  151 256 567  151 256 568  73 256 568  203 419 569  62 419 569  164 288 570  288 300 570  166 290 571  290 301 571  131 427 572  131 240 572  262 461 573  53 262 573  91 313 574  91 310 574  237 464 575  104 464 575  141 304 576  304 306 576  161 562 577  226 562 577  125 363 578  202 363 578  233 373 579  38 579 737  78 250 580  250 251 580  44 554 667  160 554 581  137 262 582  137 357 582  213 583 612  183 583 612  55 331 584  162 331 584  42 585 641  42 641 693  48 214 586  101 351 609  274 567 602  74 274 587  71 318 588  71 237 588  286 589 624  15 286 589  252 418 590  8 418 590  168 548 591  112 548 591  179 254 592  66 254 592  169 465 593  46 465 593  305 512 594  177 512 594  97 494 595  239 494 595  229 539 596  69 539 596  135 373 597  100 373 597  169 342 598  96 342 598  430 438 599  171 438 599  171 391 600  74 391 600  170 391 601  391 601 603  274 587 602  170 587 602  171 281 603  61 281 603  189 361 604  93 361 604  331 604 605  55 331 605  252 590 606  138 590 606  155 385 607  258 385 607  26 342 608  169 342 608  101 586 609  214 586 609  234 446 610  234 247 610  48 234 611  172 234 611  93 361 612  183 361 612  236 505 613  50 505 613  175 532 614  285 532 614  149 410 615  88 410 615  160 555 616  231 555 616  241 515 617  22 515 617  153 481 618  219 481 618  175 336 619  92 336 619  238 447 620  71 447 620  182 621 707  63 621 707  6 340 711  94 340 622  24 336 623  175 336 623  199 581 624  454 581 624  265 437 625  4 265 625  298 626 706  43 298 626  202 232 627  77 232 627  291 531 628  58 291 628  191 629 681  75 278 630  176 278 630  176 380 631  47 380 631  114 380 632  176 380 632  154 421 633  154 268 633  79 333 634  264 333 634  256 355 635  105 355 635  220 508 636  212 508 636  20 365 727  108 365 637  95 325 638  132 325 638  250 509 639  122 509 639  80 296 640  296 640 641  478 585 641  208 478 641  74 371 642  208 371 642  466 467 643  52 466 643  29 434 644  29 337 644  140 505 645  236 505 645  213 404 646  117 404 646  157 434 647  157 443 647  279 507 648  72 507 648  304 476 649  28 476 649  413 546 650  181 413 650  338 651 652  27 338 651  207 436 652  102 436 652  180 324 653  62 324 653  180 526 654  18 526 654  24 429 655  24 219 655  129 303 656  129 346 656  276 579 657  38 579 657  37 248 740  123 230 735  18 204 659  18 317 659  97 344 660  183 344 660  183 361 661  5 661 682  311 472 662  133 472 662  86 531 663  86 307 717  167 359 664  96 341 722  127 665 673  6 362 675  343 494 666  60 666 684  554 581 667  199 581 667  542 544 668  198 544 668  520 534 669  142 520 669  165 449 670  51 449 670  45 444 671  146 444 671  433 672 709  56 433 672  376 665 673  59 376 673  122 367 674  45 367 674  362 665 675  127 665 675  54 358 676  196 358 676  11 353 677  184 353 677  350 666 678  60 666 678  14 349 679  158 349 679  158 346 680  49 346 680  289 629 681  57 289 681  361 661 682  189 361 682  360 661 683  5 661 683  343 666 684  186 343 684  400 452 685  111 452 685  111 359 686  7 359 686  7 341 687  195 341 687  187 340 688  6 340 688  9 332 689  106 332 689  50 327 690  152 327 690  312 531 691  197 531 691  190 311 692  14 311 692  296 641 693  173 296 693  58 290 694  166 290 694  57 288 695  164 288 695  273 599 696  193 273 696  266 437 697  192 437 697  43 257 698  194 257 698  251 552 699  16 251 699  314 578 700  44 314 700  146 363 702  125 363 701  363 701 702  3 701 702  195 370 703  370 703 721  194 399 704  399 704 716  17 229 705  17 221 705  174 540 723  297 298 706  211 329 707  63 329 707  217 385 708  95 217 708  184 672 709  184 353 709  218 464 710  71 464 710  340 622 711  182 622 711  126 414 712  215 414 712  75 253 713  215 253 713  315 713 714  215 713 714  285 532 715  39 532 715  209 332 716  9 332 716  30 206 717  30 292 717  113 488 718  113 382 718  96 342 719  342 719 732  201 280 720  72 280 720  201 358 721  54 358 721  341 664 722  167 664 722  173 455 723  173 297 723  209 417 724  137 417 724  73 356 725  209 356 725  213 646 726  328 646 726  365 637 727  200 637 727  247 586 728  101 586 728  41 404 729  213 404 729  47 631 730  47 407 730  186 343 731  97 343 731  26 280 732  201 280 732  269 270 734  270 733 734  87 292 734  269 292 734  123 658 735  248 658 735  32 393 736  32 470 736  233 403 737  138 403 737  218 366 738  28 366 738  21 267 739  139 267 739  248 658 740  113 658 740  84 322 741  157 322 741  107 470 742  323 470 742  </DataArray>
<DataArray  type="UInt32"  Name="offsets"  format="ascii">3 6 9 12 15 18 21 24 27 30 33 36 39 42 45 48 51 54 57 60 63 66 69 72 75 78 81 84 87 90 93 96 99 102 105 108 111 114 117 120 123 126 129 132 135 138 141 144 147 150 153 156 159 162 165 168 171 174 177 180 183 186 189 192 195 198 201 204 207 210 213 216 219 222 225 228 231 234 237 240 243 246 249 252 255 258 261 264 267 270 273 276 279 282 285 288 291 294 297 300 303 306 309 312 315 318 321 324 327 330 333 336 339 342 345 348 351 354 357 360 363 366 369 372 375 378 381 384 387 390 393 396 399 402 405 408 411 414 417 420 423 426 429 432 435 438 441 444 447 450 453 456 459 462 465 468 471 474 477 480 483 486 489 492 495 498 501 504 507 510 513 516 519 522 525 528 531 534 537 540 543 546 549 552 555 558 561 564 567 570 573 576 579 582 585 588 591 594 597 600 603 606 609 612 615 618 621 624 627 630 633 636 639 642 645 648 651 654 657 660 663 666 669 672 675 678 681 684 687 690 693 696 699 702 705 708 711 714 717 720 723 726 729 732 735 738 741 744 747 750 753 756 759 762 765 768 771 774 777 780 783 786 789 792 795 798 801 804 807 810 813 816 819 822 825 828 831 834 837 840 843 846 849 852 855 858 861 864 867 870 873 876 879 882 885 888 891 894 897 900 903 906 909 912 915 918 921 924 927 930 933 936 939 942 945 948 951 954 957 960 963 966 969 972 975 978 981 984 987 990 993 996 999 1002 1005 1008 1011 1014 1017 1020 1023 1026 1029 1032 1035 1038 1041 1044 1047 1050 1053 1056 1059 1062 1065 1068 1071 1074 1077 1080 1083 1086 1089 1092 1095 1098 1101 1104 1107 1110 1113 1116 1119 1122 1125 1128 1131 1134 1137 1140 1143 1146 1149 1152 1155 1158 1161 1164 1167 1170 1173 1176 1179 1182 1185 1188 1191 1194 1197 1200 1203 1206 1209 1212 1215 1218 1221 1224 1227 1230 1233 1236 1239 1242 1245 1248 1251 1254 1257 1260 1263 1266 1269 1272 1275 1278 1281 1284 1287 1290 1293 1296 1299 1302 1305 1308 1311 1314 1317 1320 1323 1326 1329 1332 1335 1338 1341 1344 1347 1350 1353 1356 1359 1362 1365 1368 1371 1374 1377 1380 1383 1386 1389 1392 1395 1398 1401 1404 1407 1410 1413 1416 1419 1422 1425 1428 1431 1434 1437 1440 1443 1446 1449 1452 1455 1458 1461 1464 1467 1470 1473 1476 1479 1482 1485 1488 1491 1494 1497 1500 1503 1506 1509 1512 1515 1518 1521 1524 1527 1530 1533 1536 1539 1542 1545 1548 1551 1554 1557 1560 1563 1566 1569 1572 1575 1578 1581 1584 1587 1590 1593 1596 1599 1602 1605 1608 1611 1614 1617 1620 1623 1626 1629 1632 1635 1638 1641 1644 1647 1650 1653 1656 1659 1662 1665 1668 1671 1674 1677 1680 1683 1686 1689 1692 1695 1698 1701 1704 1707 1710 1713 1716 1719 1722 1725 1728 1731 1734 1737 1740 1743 1746 1749 1752 1755 1758 1761 1764 1767 1770 1773 1776 1779 1782 1785 1788 1791 1794 1797 1800 1803 1806 1809 1812 1815 1818 1821 1824 1827 1830 1833 1836 1839 1842 1845 1848 1851 1854 1857 1860 1863 1866 1869 1872 1875 1878 1881 1884 1887 1890 1893 1896 1899 1902 1905 1908 1911 1914 1917 1920 1923 1926 1929 1932 1935 1938 1941 1944 1947 1950 1953 1956 1959 1962 1965 1968 1971 1974 1977 1980 1983 1986 1989 1992 1995 1998 2001 2004 2007 2010 2013 2016 2019 2022 2025 2028 2031 2034 2037 2040 2043 2046 2049 2052 2055 2058 2061 2064 2067 2070 2073 2076 2079 2082 2085 2088 2091 2094 2097 2100 2103 2106 2109 2112 2115 2118 2121 2124 2127 2130 2133 2136 2139 2142 2145 2148 2151 2154 2157 2160 2163 2166 2169 2172 2175 2178 2181 2184 2187 2190 2193 2196 2199 2202 2205 2208 2211 2214 2217 2220 2223 2226 2229 2232 2235 2238 2241 2244 2247 2250 2253 2256 2259 2262 2265 2268 2271 2274 2277 2280 2283 2286 2289 2292 2295 2298 2301 2304 2307 2310 2313 2316 2319 2322 2325 2328 2331 2334 2337 2340 2343 2346 2349 2352 2355 2358 2361 2364 2367 2370 2373 2376 2379 2382 2385 2388 2391 2394 2397 2400 2403 2406 2409 2412 2415 2418 2421 2424 2427 2430 2433 2436 2439 2442 2445 2448 2451 2454 2457 2460 2463 2466 2469 2472 2475 2478 2481 2484 2487 2490 2493 2496 2499 2502 2505 2508 2511 2514 2517 2520 2523 2526 2529 2532 2535 2538 2541 2544 2547 2550 2553 2556 2559 2562 2565 2568 2571 2574 2577 2580 2583 2586 2589 2592 2595 2598 2601 2604 2607 2610 2613 2616 2619 2622 2625 2628 2631 2634 2637 2640 2643 2646 2649 2652 2655 2658 2661 2664 2667 2670 2673 2676 2679 2682 2685 2688 2691 2694 2697 2700 2703 2706 2709 2712 2715 2718 2721 2724 2727 2730 2733 2736 2739 2742 2745 2748 2751 2754 2757 2760 2763 2766 2769 2772 2775 2778 2781 2784 2787 2790 2793 2796 2799 2802 2805 2808 2811 2814 2817 2820 2823 2826 2829 2832 2835 2838 2841 2844 2847 2850 2853 2856 2859 2862 2865 2868 2871 2874 2877 2880 2883 2886 2889 2892 2895 2898 2901 2904 2907 2910 2913 2916 2919 2922 2925 2928 2931 2934 2937 2940 2943 2946 2949 2952 2955 2958 2961 2964 2967 2970 2973 2976 2979 2982 2985 2988 2991 2994 2997 3000 3003 3006 3009 3012 3015 3018 3021 3024 3027 3030 3033 3036 3039 3042 3045 3048 3051 3054 3057 3060 3063 3066 3069 3072 3075 3078 3081 3084 3087 3090 3093 3096 3099 3102 3105 3108 3111 3114 3117 3120 3123 3126 3129 3132 3135 3138 3141 3144 3147 3150 3153 3156 3159 3162 3165 3168 3171 3174 3177 3180 3183 3186 3189 3192 3195 3198 3201 3204 3207 3210 3213 3216 3219 3222 3225 3228 3231 3234 3237 3240 3243 3246 3249 3252 3255 3258 3261 3264 3267 3270 3273 3276 3279 3282 3285 3288 3291 3294 3297 3300 3303 3306 3309 3312 3315 3318 3321 3324 3327 3330 3333 3336 3339 3342 3345 3348 3351 3354 3357 3360 3363 3366 3369 3372 3375 3378 3381 3384 3387 3390 3393 3396 3399 3402 3405 3408 3411 3414 3417 3420 3423 3426 3429 3432 3435 3438 3441 3444 3447 3450 3453 3456 3459 3462 3465 3468 3471 3474 3477 3480 3483 3486 3489 3492 3495 3498 3501 3504 3507 3510 3513 3516 3519 3522 3525 3528 3531 3534 3537 3540 3543 3546 3549 3552 3555 3558 3561 3564 3567 3570 3573 3576 3579 3582 3585 3588 3591 3594 3597 3600 3603 3606 3609 3612 3615 3618 3621 3624 3627 3630 3633 3636 3639 3642 3645 3648 3651 3654 3657 3660 3663 3666 3669 3672 3675 3678 3681 3684 3687 3690 3693 3696 3699 3702 3705 3708 3711 3714 3717 3720 3723 3726 3729 3732 3735 3738 3741 3744 3747 3750 3753 3756 3759 3762 3765 3768 3771 3774 3777 3780 3783 3786 3789 3792 3795 3798 3801 3804 3807 3810 3813 3816 3819 3822 3825 3828 3831 3834 3837 3840 3843 3846 3849 3852 3855 3858 3861 3864 3867 3870 3873 3876 3879 3882 3885 3888 3891 3894 3897 3900 3903 3906 3909 3912 3915 3918 3921 3924 3927 3930 3933 3936 3939 3942 3945 3948 3951 3954 3957 3960 3963 3966 3969 3972 3975 3978 3981 3984 3987 3990 3993 3996 3999 4002 4005 4008 4011 4014 4017 4020 4023 4026 4029 4032 4035 4038 4041 4044 4047 4050 4053 4056 4059 4062 4065 4068 </DataArray>
<DataArray  type="UInt8"  Name="types"  format="ascii">5 5 5 5 5 5 5 5 5 5 5 5 5 5 5 5 5 5 5 5 5 5 5 5 5 5 5 5 5 5 5 5 5 5 5 5 5 5 5 5 5 5 5 5 5 5 5 5 5 5 5 5 5 5 5 5 5 5 5 5 5 5 5 5 5 5 5 5 5 5 5 5 5 5 5 5 5 5 5 5 5 5 5 5 5 5 5 5 5 5 5 5 5 5 5 5 5 5 5 5 5 5 5 5 5 5 5 5 5 5 5 5 5 5 5 5 5 5 5 5 5 5 5 5 5 5 5 5 5 5 5 5 5 5 5 5 5 5 5 5 5 5 5 5 5 5 5 5 5 5 5 5 5 5 5 5 5 5 5 5 5 5 5 5 5 5 5 5 5 5 5 5 5 5 5 5 5 5 5 5 5 5 5 5 5 5 5 5 5 5 5 5 5 5 5 5 5 5 5 5 5 5 5 5 5 5 5 5 5 5 5 5 5 5 5 5 5 5 5 5 5 5 5 5 5 5 5 5 5 5 5 5 5 5 5 5 5 5 5 5 5 5 5 5 5 5 5 5 5 5 5 5 5 5 5 5 5 5 5 5 5 5 5 5 5 5 5 5 5 5 5 5 5 5 5 5 5 5 5 5 5 5 5 5 5 5 5 5 5 5 5 5 5 5 5 5 5 5 5 5 5 5 5 5 5 5 5 5 5 5 5 5 5 5 5 5 5 5 5 5 5 5 5 5 5 5 5 5 5 5 5 5 5 5 5 5 5 5 5 5 5 5 5 5 5 5 5 5 5 5 5 5 5 5 5 5 5 5 5 5 5 5 5 5 5 5 5 5 5 5 5 5 5 5 5 5 5 5 5 5 5 5 5 5 5 5 5 5 5 5 5 5 5 5 5 5 5 5 5 5 5 5 5 5 5 5 5 5 5 5 5 5 5 5 5 5 5 5 5 5 5 5 5 5 5 5 5 5 5 5 5 5 5 5 5 5 5 5 5 5 5 5 5 5 5 5 5 5 5 5 5 5 5 5 5 5 5 5 5 5 5 5 5 5 5 5 5 5 5 5 5 5 5 5 5 5 5 5 5 5 5 5 5 5 5 5 5 5 5 5 5 5 5 5 5 5 5 5 5 5 5 5 5 5 5 5 5 5 5 5 5 5 5 5 5 5 5 5 5 5 5 5 5 5 5 5 5 5 5 5 5 5 5 5 5 5 5 5 5 5 5 5 5 5 5 5 5 5 5 5 5 5 5 5 5 5 5 5 5 5 5 5 5 5 5 5 5 5 5 5 5 5 5 5 5 5 5 5 5 5 5 5 5 5 5 5 5 5 5 5 5 5 5 5 5 5 5 5 5 5 5 5 5 5 5 5 5 5 5 5 5 5 5 5 5 5 5 5 5 5 5 5 5 5 5 5 5 5 5 5 5 5 5 5 5 5 5 5 5 5 5 5 5 5 5 5 5 5 5 5 5 5 5 5 5 5 5 5 5 5 5 5 5 5 5 5 5 5 5 5 5 5 5 5 5 5 5 5 5 5 5 5 5 5 5 5 5 5 5 5 5 5 5 5 5 5 5 5 5 5 5 5 5 5 5 5 5 5 5 5 5 5 5 5 5 5 5 5 5 5 5 5 5 5 5 5 5 5 5 5 5 5 5 5 5 5 5 5 5 5 5 5 5 5 5 5 5 5 5 5 5 5 5 5 5 5 5 5 5 5 5 5 5 5 5 5 5 5 5 5 5 5 5 5 5 5 5 5 5 5 5 5 5 5 5 5 5 5 5 5 5 5 5 5 5 5 5 5 5 5 5 5 5 5 5 5 5 5 5 5 5 5 5 5 5 5 5 5 5 5 5 5 5 5 5 5 5 5 5 5 5 5 5 5 5 5 5 5 5 5 5 5 5 5 5 5 5 5 5 5 5 5 5 5 5 5 5 5 5 5 5 5 5 5 5 5 5 5 5 5 5 5 5 5 5 5 5 5 5 5 5 5 5 5 5 5 5 5 5 5 5 5 5 5 5 5 5 5 5 5 5 5 5 5 5 5 5 5 5 5 5 5 5 5 5 5 5 5 5 5 5 5 5 5 5 5 5 5 5 5 5 5 5 5 5 5 5 5 5 5 5 5 5 5 5 5 5 5 5 5 5 5 5 5 5 5 5 5 5 5 5 5 5 5 5 5 5 5 5 5 5 5 5 5 5 5 5 5 5 5 5 5 5 5 5 5 5 5 5 5 5 5 5 5 5 5 5 5 5 5 5 5 5 5 5 5 5 5 5 5 5 5 5 5 5 5 5 5 5 5 5 5 5 5 5 5 5 5 5 5 5 5 5 5 5 5 5 5 5 5 5 5 5 5 5 5 5 5 5 5 5 5 5 5 5 5 5 5 5 5 5 5 5 5 5 5 5 5 5 5 5 5 5 5 5 5 5 5 5 5 5 5 5 5 5 5 5 5 5 5 5 5 5 5 5 5 5 5 5 5 5 5 5 5 5 5 5 5 5 5 5 5 5 5 5 5 5 5 5 5 5 5 5 5 5 5 5 5 5 5 5 5 5 5 5 5 5 5 5 5 5 5 5 5 5 5 5 5 5 5 5 5 5 5 5 5 5 5 5 5 5 5 5 5 5 5 5 5 5 5 5 5 5 5 5 5 5 5 5 5 5 5 5 5 5 5 5 5 5 5 5 5 5 5 5 5 5 5 5 5 5 5 5 5 5 5 5 5 5 5 5 5 5 5 5 5 5 5 5 5 5 5 5 5 5 5 5 5 5 5 5 5 5 5 5 5 5 5 5 5 5 5 5 5 5 5 5 5 5 5 5 5 5 5 5 5 5 5 5 5 5 5 5 5 5 5 5 5 5 5 5 5 5 5 5 5 5 5 5 5 5 5 5 5 5 5 5 5 5 5 5 5 5 5 5 5 5 5 5 5 5 5 5 5 5 5 5 5 5 5 5 5 5 5 5 5 5 5 5 5 5 5 5 5 5 5 5 5 5 5 5 5 5 5 5 5 5 5 5 5 5 5 5 5 5 5 5 5 5 5 5 5 5 5 5 5 </DataArray>
</Cells>
<PointData  Scalars="f_20-1"> 
<DataArray  type="Float64"  Name="f_20-1"  format="ascii">0.0000000000000000e+00  0.0000000000000000e+00  0.0000000000000000e+00  0.0000000000000000e+00  0.0000000000000000e+00  0.0000000000000000e+00  0.0000000000000000e+00  0.0000000000000000e+00  4.9601927549968106e-01  0.0000000000000000e+00  0.0000000000000000e+00  0.0000000000000000e+00  0.0000000000000000e+00  0.0000000000000000e+00  0.0000000000000000e+00  0.0000000000000000e+00  0.0000000000000000e+00  4.0707485263528526e-01  1.5075980852926785e-01  2.5764676239340067e-01  3.5735857370460167e-01  1.2373476429080907e-01  4.6015418877386932e-01  1.5632055104419371e-02  2.1547205670096023e-01  1.8880932902565786e-01  -5.1881291693008915e-03  1.2355829479219242e-01  3.9433089900752299e-01  1.5824829347832914e-01  3.2678574476806433e-03  4.3049553212874003e-01  -6.3978959104682813e-03  3.0195131480613224e-01  4.8947506132415058e-01  3.2405382501091701e-01  2.8019015478691711e-01  3.6254233781325051e-01  4.8722989069258316e-01  1.6800756051768337e-01  1.5732587857407923e-01  2.2431642438603894e-01  0.0000000000000000e+00  0.0000000000000000e+00  0.0000000000000000e+00  0.0000000000000000e+00  -1.6149895157962547e-02  1.2968838553550452e-01  4.0357985160412202e-01  0.0000000000000000e+00  0.0000000000000000e+00  0.0000000000000000e+00  0.0000000000000000e+00  0.0000000000000000e+00  0.0000000000000000e+00  0.0000000000000000e+00  0.0000000000000000e+00  0.0000000000000000e+00  0.0000000000000000e+00  0.0000000000000000e+00  0.0000000000000000e+00  5.2405704423660465e-02  3.1651588062828256e-01  2.5522591805690614e-01  4.7626910984160997e-01  1.5462143454823878e-02  1.1624942436118073e-01  3.0279148637041398e-02  2.5044496950865336e-01  3.4651057662465862e-01  5.0125596584665455e-01  4.8854265141762088e-01  -1.3040355386455064e-02  -6.5926537217505599e-03  5.9445261808038167e-03  1.0305724695222199e-01  9.4103404090344775e-02  5.9109055258611008e-02  1.5976941731238994e-01  1.6249258001818742e-01  -2.8568722651060286e-03  3.4231981603283285e-01  3.4765661198950570e-01  4.6680712410847514e-01  3.0743819820372914e-01  5.6955049323931944e-02  -6.2801500144325844e-03  -3.1684126255137881e-03  5.4617761530746059e-02  3.5804917684367402e-02  6.6433549118395163e-02  9.8056665912408927e-02  2.9368624975697111e-01  8.2474908944204561e-02  6.7826025897824410e-02  3.0930524963034006e-01  -1.6210718057410454e-02  8.2696821795965922e-02  2.8247195809262132e-01  1.5450168581359607e-03  4.8733928510007696e-01  4.4428974386123127e-01  1.5648516122914879e-01  4.9348898617739373e-01  4.2144925963460239e-01  -2.9342725450355162e-03  0.0000000000000000e+00  5.1693546059081101e-02  2.4267643129812885e-01  0.0000000000000000e+00  5.6064252353882869e-02  0.0000000000000000e+00  -1.7508714993333171e-02  2.8669010265118250e-01  2.7738996801937327e-01  4.0012874609508142e-01  4.7698627949725492e-01  2.6599194188487901e-01  3.1120783062566698e-01  4.2941100649101355e-01  3.6187500381427866e-02  2.6561132936796673e-02  0.0000000000000000e+00  4.1960801638352896e-01  4.6166087959200069e-01  0.0000000000000000e+00  3.6528232584101317e-02  0.0000000000000000e+00  1.5933185755056900e-01  1.5666384824525859e-01  1.4143004037708631e-01  4.4278895183232286e-01  2.1132921179837377e-01  1.1173854902715079e-01  3.4451682361345104e-01  4.9967983357133477e-01  4.3765387800865713e-01  -1.1886248361642008e-02  5.0561621100868126e-01  2.1707666362924050e-01  4.8679192223902400e-02  2.4380516338058322e-01  0.0000000000000000e+00  8.0193143335617029e-02  5.7150129904393235e-02  8.4039783161565670e-02  0.0000000000000000e+00  1.2054619312681455e-01  -8.5877982815118024e-03  1.5309802627819152e-01  5.0397759440182399e-01  -2.2382625490284069e-03  0.0000000000000000e+00  6.6137233756601174e-02  4.2014980169886351e-01  4.3430524084483457e-01  2.8123570200049769e-01  1.8842426098643528e-01  0.0000000000000000e+00  3.6218642174157317e-01  3.6235654831958952e-02  3.9956090045666709e-01  6.9213580536648792e-02  0.0000000000000000e+00  0.0000000000000000e+00  0.0000000000000000e+00  0.0000000000000000e+00  -1.7038253417653765e-02  -7.5008126953228617e-03  -1.5848544179651324e-02  3.0648505663228638e-02  1.1440852528640522e-02  3.7448357946755889e-01  0.0000000000000000e+00  0.0000000000000000e+00  1.9775029626367488e-01  1.8101956500089358e-01  2.2146040404207018e-01  2.9915104210659182e-02  1.7980630618720167e-01  2.3308710817982270e-01  2.2664533788983243e-01  9.5159382610943435e-02  8.3167331319003640e-02  0.0000000000000000e+00  0.0000000000000000e+00  0.0000000000000000e+00  0.0000000000000000e+00  0.0000000000000000e+00  0.0000000000000000e+00  0.0000000000000000e+00  0.0000000000000000e+00  0.0000000000000000e+00  0.0000000000000000e+00  0.0000000000000000e+00  0.0000000000000000e+00  0.0000000000000000e+00  0.0000000000000000e+00  0.0000000000000000e+00  0.0000000000000000e+00  2.8844569385005625e-01  -1.3183273581325448e-02  1.1012157907588012e-02  3.7617701331213915e-01  6.9938338440028433e-02  4.3452925905361666e-03  5.7735914233522931e-03  8.6958791820249751e-02  -7.2943413673397651e-04  -7.3633955753542287e-03  2.8843102459340075e-01  1.8888792206360183e-01  4.1586764006945220e-01  1.8327505742117892e-01  3.9283571747631824e-01  4.3563492454269416e-02  2.3416822087299735e-01  4.0673160823409688e-01  4.5141724785525994e-01  1.5888946531765882e-01  4.1590866348004502e-01  3.3396435314753198e-01  1.1513757578500098e-02  1.8799545200467985e-01  6.6338893741313487e-03  3.2733703693123667e-01  3.1762921238319669e-01  3.5499165611178947e-02  1.0437004814550678e-01  3.5462037512765676e-01  4.6064578804346351e-01  1.0550108516634102e-01  2.1663881257027381e-02  5.0644876823196583e-01  4.3681179802059400e-01  3.2537503041598977e-02  3.9003211974172849e-02  4.5579308957555797e-01  4.9835307691897135e-01  1.5782261613781645e-01  4.0572114620222532e-01  3.8545698519421456e-01  -7.3279046460990984e-03  4.7718769409995399e-01  5.0364996640224369e-01  5.0308266697259763e-01  7.7499327423612610e-02  4.5677194432254165e-01  3.7669076795945483e-01  2.9152594225106099e-01  5.0834499770537063e-02  5.3960911664592250e-02  4.8501623669315785e-01  9.3140820181603273e-02  2.2242578625819887e-01  4.7608015353308514e-01  -2.2351847618864128e-03  -2.5743923203955829e-03  3.6730170637145593e-01  2.8034539667650665e-01  5.6762287934272800e-02  4.5646662275306271e-01  -1.0381744006457595e-02  2.1088278020993595e-01  3.0393391835115086e-01  6.5395563144150695e-02  6.9609990340421188e-02  1.2590719827296079e-01  3.5437211445298883e-01  -9.8403282508321803e-04  -1.1565214438970842e-03  3.9233538850748989e-01  3.4462360479488396e-01  1.9144187311674176e-03  8.5104620488984269e-03  4.8214349833481723e-01  4.8415305532677283e-01  1.2996741197583345e-01  1.7219114581435166e-01  -6.9975104098030823e-03  -1.4289008228141923e-02  2.6747976624107970e-02  1.4123873468538523e-01  3.8326722347918007e-01  3.5084227629158166e-01  1.3123158582052968e-01  3.0965362788495852e-02  2.4616184559459693e-02  9.6601123828265693e-03  2.1030954284279636e-02  -1.4468165008133026e-03  -2.8620851492072623e-03  -5.0578780663119039e-03  2.7990359226334093e-02  8.7773040290458876e-02  7.7882594463771312e-02  -6.8414646504846106e-04  -6.0344710205649966e-04  -1.6421205951623970e-03  -4.7462729231683362e-03  6.6987931011924526e-03  -8.6151048705811184e-04  1.3834115613304412e-01  1.6752340898839507e-01  3.4418206976562798e-01  3.3002967756579388e-01  2.5491684051913510e-01  -5.9765186387773948e-03  4.5144373398251203e-01  2.1482203078378825e-01  3.8919328829534645e-02  2.5160704138538950e-02  -4.0601438433081711e-03  3.5916946385025968e-02  1.5721443144451723e-02  4.6237726189013263e-02  3.2788658493758095e-02  1.1823125296186443e-01  4.8972903824310982e-01  1.8027097212258789e-01  3.6701255242249320e-01  4.7777069445746551e-01  2.6880487270473419e-01  2.6420186873880883e-02  3.1581616519167877e-01  2.1967496322001293e-01  1.7257478034314508e-01  9.6380419267243604e-03  1.6055688838614351e-01  2.9328217671115636e-01  -2.0388444937249638e-02  4.4108693711546111e-02  -3.9835597215980931e-03  2.3158877433929986e-01  1.0028161694436458e-01  2.4104934149003984e-01  2.6267660487333050e-01  2.2492483610010480e-01  1.5063128038524654e-01  2.3308060290121022e-01  2.5314017180762000e-02  -6.5826755627583248e-03  -1.8805718847503594e-02  2.5059300435334889e-02  1.4886530980686211e-01  2.8790365928136463e-01  3.9814839169985114e-02  4.5421142805783976e-01  2.2973088199737512e-01  3.1331504735264352e-02  2.0105707324144663e-02  3.8397143499743186e-01  5.0196282654522062e-01  7.0205016394622602e-03  3.4286719109386521e-01  9.4692417618162435e-03  -7.9387686858741358e-03  -8.8130926716868518e-03  -4.6021834035041530e-03  -6.0067286840984882e-03  2.9280524118553065e-02  2.8347850834720485e-02  3.1578591920443343e-02  8.7286791325959288e-04  2.1976703366042327e-01  3.0544274620778972e-01  4.5427608146913628e-01  1.3414243270646614e-02  3.2522212032847431e-01  5.0502913579934849e-01  -6.0482443870892369e-03  5.2860108658659582e-04  1.1540890358535777e-01  5.0170322126976019e-01  4.2270066544600821e-01  4.7375239570160743e-01  3.8906826585394925e-02  1.0094237287211448e-01  3.5046951413301725e-01  2.8024476465402970e-01  1.9927828504887571e-01  3.0322778890650010e-01  2.6131304257597560e-01  3.8493804827783917e-01  3.8193713142405938e-01  4.2877719101888523e-01  1.1428713380989786e-01  2.9190070865707707e-01  4.0724310189798479e-01  4.1852276515718961e-01  4.6622183979595438e-01  1.8816624476052302e-02  6.7671785181292229e-02  -1.6454806559846394e-02  2.7912494912452268e-01  1.4970056979149687e-01  4.9930662795133696e-01  9.3189751741562035e-02  3.9517453519229617e-01  -3.6708500650434999e-03  -6.9619519946386970e-03  3.1587447884750708e-01  2.2749969325144209e-01  5.0089304314593242e-01  2.4203553791293814e-01  8.0401017685077680e-02  1.0283909988669890e-01  6.7017859612919645e-02  0.0000000000000000e+00  0.0000000000000000e+00  1.2485538931710741e-01  1.9516048596900662e-02  3.1399635972606699e-02  1.9138058652617163e-01  2.0182773366564048e-02  7.6472132467800352e-02  0.0000000000000000e+00  -1.0387075130322552e-02  4.6792030516585770e-01  3.0462646786473507e-01  4.5349164186542990e-01  4.4829260128859794e-01  3.4997546630495413e-01  2.4464036569526429e-01  6.9674152184009477e-03  7.5225775493887412e-02  7.1399037099739687e-02  4.1016145510263219e-01  3.6530633413989905e-01  2.7693579058394391e-01  0.0000000000000000e+00  4.7553061169888849e-01  2.5185616586321995e-02  8.5014602588367617e-03  1.2569642943985918e-01  1.6947812962343142e-01  9.9439309753444921e-02  5.3630056453171135e-02  6.1442457754019991e-03  9.8192346141378825e-02  2.5250815613338390e-01  -6.4966620428159854e-03  4.1685280567895672e-01  2.0563368806981955e-01  4.3438592738969731e-03  1.7763460033319067e-01  4.6644133428308671e-01  4.8504474110807272e-01  1.0550721939372454e-01  -5.4498251177138683e-04  0.0000000000000000e+00  4.5437191304773383e-01  -1.0919653741874881e-02  2.3591608338223213e-01  4.3425732323180165e-02  0.0000000000000000e+00  1.4006398813721407e-01  0.0000000000000000e+00  3.3189184079175954e-01  7.3311044393738097e-03  4.5017625775051606e-01  -6.2353083729472436e-03  4.9035253433223308e-01  4.6936826414726068e-01  4.5908286435242779e-01  -2.1330609706573567e-02  0.0000000000000000e+00  1.9046587308169004e-02  7.7253360787834305e-03  7.0509698121662190e-02  1.2722348386482635e-02  4.0935048521421402e-01  8.8690018232251019e-02  2.0064455866409772e-01  9.0379904061437158e-02  1.6539265825840249e-01  3.2354801275974543e-01  4.9738577680390345e-01  3.3846317481982653e-04  0.0000000000000000e+00  6.0028026100681676e-02  1.0362205219557487e-01  1.2496686638915257e-02  6.7777730977830936e-02  0.0000000000000000e+00  1.2128567540005764e-01  3.7867940723435795e-01  9.7428831091865870e-02  1.8400609006597085e-01  2.8922141330936929e-02  1.5931831502191526e-01  2.2989045928302018e-01  4.9014676971192411e-01  0.0000000000000000e+00  8.3503190085917195e-02  3.3471216749862975e-01  2.3594475783458096e-01  -8.5235520282879347e-03  1.5601563178183792e-01  2.8006714984574071e-01  4.5656789037071943e-01  4.8799040587922443e-01  0.0000000000000000e+00  1.8000802305708618e-02  2.0558578474178388e-02  2.1789259844068817e-02  -1.0884711162603617e-03  -1.1248980290835830e-02  3.8873555636357093e-01  2.9645052234968133e-02  1.6777004279276564e-01  3.3926540542765138e-01  2.5960878126047232e-01  2.3872818666377499e-02  3.0526355869621596e-01  4.3110229758920254e-01  0.0000000000000000e+00  2.1443257501039689e-02  -7.6560692472263164e-05  9.2923777468262346e-04  2.6108509757475199e-02  5.8820333211502554e-02  5.0465178671443633e-01  9.0967716731187045e-02  5.0796518860496576e-02  4.8032355236955399e-01  1.7234102489996536e-01  4.0110301490883660e-01  3.7755473160309533e-01  3.4115534460703939e-01  -2.8656909010559796e-03  -2.7162415296442689e-03  1.9262757776845407e-01  2.0706608520975847e-01  3.0064619576906326e-02  2.2142512241061021e-01  0.0000000000000000e+00  2.4960120079259332e-01  2.4399798190449662e-01  3.1320550443769057e-01  0.0000000000000000e+00  0.0000000000000000e+00  1.6098415202360380e-02  7.6715826444266777e-02  2.2794382564190318e-02  0.0000000000000000e+00  2.0977240262645538e-01  1.7869646984665064e-01  -1.7423608745786790e-02  -9.1991788618775135e-04  4.5109670739198138e-01  2.1569930090072553e-01  4.0366030219664409e-02  4.2639072826864388e-01  9.5788740978523836e-03  6.2248827515882885e-02  5.3743021213209716e-02  5.0607905422000199e-01  5.0477386284091941e-01  3.9805761669047868e-02  -4.3180653289414984e-03  2.5728060591937457e-01  4.1903792864968448e-01  1.5923419578016901e-01  3.1313592996994949e-01  7.6897349656224870e-02  1.8854969531783731e-02  4.1794438541952125e-03  -5.2778921364712850e-03  3.7376235229786031e-01  1.3851171639128043e-03  -2.4326937477406744e-04  4.0880302607599117e-01  0.0000000000000000e+00  1.9050592415771811e-02  4.2469248857038150e-01  2.3971557802177018e-01  3.3973222720201574e-01  4.2938513067456354e-03  4.9819470200412908e-01  1.3165452882785389e-01  1.1851467816766541e-02  -1.4049122368874760e-02  1.4811640474234486e-01  2.1493808953718406e-02  0.0000000000000000e+00  4.3463449596905507e-01  1.4385526100679729e-02  4.7514080353839278e-01  0.0000000000000000e+00  4.9968288334295369e-01  -1.6999892282022058e-02  1.3007552580440529e-01  -1.1622489414576066e-02  2.8113694113836435e-01  1.4361781164901580e-01  3.5789500595693707e-01  4.9770187064816734e-01  -2.0914153275586166e-02  2.7696480707655336e-03  7.7236591823461901e-03  5.0984390460453034e-02  2.5277333280330973e-02  2.7185162549448152e-02  2.6294887945884575e-02  0.0000000000000000e+00  4.9657471667307723e-01  3.8620824743684623e-01  -1.0522170878155752e-02  3.7017500626674626e-01  4.6396425976768990e-01  3.9172246890542978e-01  1.0587254918153927e-01  0.0000000000000000e+00  1.4359095621854820e-01  1.0245441971694751e-01  7.1364025524025210e-02  4.2933331481454307e-01  1.0559938845424073e-01  2.4191825828189964e-01  4.9887068513313537e-01  1.6965005611712072e-01  8.2856565795233234e-02  2.0138017139737496e-01  1.2275816122036300e-02  0.0000000000000000e+00  0.0000000000000000e+00  2.9705777070901874e-02  0.0000000000000000e+00  1.0440841605306931e-02  1.2887160789697896e-01  1.3946895177201574e-01  2.3504652983500085e-01  4.0655396921932668e-01  2.3450707236397386e-01  -2.5628977299689726e-03  4.3158313982969271e-01  2.6265784125750596e-01  2.5407136826668086e-01  0.0000000000000000e+00  -1.9827016560129917e-03  -3.3356710670285472e-04  1.1066111999306016e-03  7.0015378485090950e-03  1.7523618734038160e-01  6.6414293734949170e-02  2.1932195673252888e-01  1.5440780783556285e-01  -1.1958254373550551e-02  3.9944908560957959e-01  2.6014227699670067e-01  1.0544378440370153e-01  1.2235151882475395e-01  2.7372579353635140e-01  2.0079272711188953e-01  2.2732046841114700e-01  7.5288971750772871e-02  4.7257825623723920e-01  3.7475888460986601e-01  1.1105595274283402e-01  8.3864762152125377e-02  2.7715643999284650e-02  4.5040853685039794e-02  -5.2873769776109114e-03  -7.2087189896828186e-03  3.4331587557272704e-02  2.0837002768459421e-02  0.0000000000000000e+00  0.0000000000000000e+00  0.0000000000000000e+00  0.0000000000000000e+00  0.0000000000000000e+00  0.0000000000000000e+00  0.0000000000000000e+00  0.0000000000000000e+00  0.0000000000000000e+00  0.0000000000000000e+00  0.0000000000000000e+00  0.0000000000000000e+00  0.0000000000000000e+00  0.0000000000000000e+00  0.0000000000000000e+00  0.0000000000000000e+00  0.0000000000000000e+00  0.0000000000000000e+00  0.0000000000000000e+00  0.0000000000000000e+00  0.0000000000000000e+00  0.0000000000000000e+00  0.0000000000000000e+00  0.0000000000000000e+00  0.0000000000000000e+00  0.0000000000000000e+00  0.0000000000000000e+00  0.0000000000000000e+00  0.0000000000000000e+00  0.0000000000000000e+00  0.0000000000000000e+00  0.0000000000000000e+00  0.0000000000000000e+00  0.0000000000000000e+00  0.0000000000000000e+00  0.0000000000000000e+00  0.0000000000000000e+00  0.0000000000000000e+00  3.4434065300134259e-01  -3.3068809736102884e-04  2.1537946392356164e-01  3.8645886625691916e-01  7.9287593452991093e-03  4.7633231078691568e-01  3.0898518132112300e-02  5.3960068511495124e-02  6.4673631782902835e-02  2.5194605859599092e-02  1.1932111489504454e-01  -2.4131570319308325e-03  -3.5598493364000076e-03  2.2978551296647506e-01  -1.4805073163180115e-02  -1.2102594403889881e-02  -5.0950848002187330e-03  -1.6575704948068665e-02  -9.3143804819471307e-05  -9.1179713063549300e-03  -7.0808796439214214e-03  1.3860195753644236e-01  3.1606786756203176e-01  4.6886601744721729e-01  1.9940334461899320e-01  7.3359104550410809e-02  3.0236899221027947e-02  -1.7825949181044937e-02  -1.9237065504320811e-03  -2.5113770853940915e-03  4.2344810504794039e-01  -7.3097704361697905e-03  5.0553228838261532e-01  4.2522612693151901e-01  1.8081039305762164e-01  3.1734679576138619e-01  2.4262828615160584e-01  5.5840178179148832e-02  </DataArray> 
</PointData> 
</Piece>
</UnstructuredGrid>
</VTKFile>