<?xml version="1.0"?>
<VTKFile type="Collection" version="0.1">
  <Collection>
    <DataSet timestep="0" part="0" file="w000000.vtu" />
    <DataSet timestep="0.020408163265306121" part="0" file="w000001.vtu" />
    <DataSet timestep="0.040816326530612242" part="0" file="w000002.vtu" />
    <DataSet timestep="0.061224489795918366" part="0" file="w000003.vtu" />
    <DataSet timestep="0.081632653061224483" part="0" file="w000004.vtu" />
    <DataSet timestep="0.1020408163265306" part="0" file="w000005.vtu" />
    <DataSet timestep="0.12244897959183673" part="0" file="w000006.vtu" />
    <DataSet timestep="0.14285714285714285" part="0" file="w000007.vtu" />
    <DataSet timestep="0.16326530612244897" part="0" file="w000008.vtu" />
    <DataSet timestep="0.18367346938775508" part="0" file="w000009.vtu" />
    <DataSet timestep="0.2040816326530612" part="0" file="w000010.vtu" />
    <DataSet timestep="0.22448979591836732" part="0" file="w000011.vtu" />
    <DataSet timestep="0.24489795918367346" part="0" file="w000012.vtu" />
    <DataSet timestep="0.26530612244897955" part="0" file="w000013.vtu" />
    <DataSet timestep="0.2857142857142857" part="0" file="w000014.vtu" />
    <DataSet timestep="0.30612244897959179" part="0" file="w000015.vtu" />
    <DataSet timestep="0.32653061224489793" part="0" file="w000016.vtu" />
    <DataSet timestep="0.34693877551020408" part="0" file="w000017.vtu" />
    <DataSet timestep="0.36734693877551017" part="0" file="w000018.vtu" />
    <DataSet timestep="0.38775510204081631" part="0" file="w000019.vtu" />
    <DataSet timestep="0.4081632653061224" part="0" file="w000020.vtu" />
    <DataSet timestep="0.42857142857142855" part="0" file="w000021.vtu" />
    <DataSet timestep="0.44897959183673464" part="0" file="w000022.vtu" />
    <DataSet timestep="0.46938775510204078" part="0" file="w000023.vtu" />
    <DataSet timestep="0.48979591836734693" part="0" file="w000024.vtu" />
    <DataSet timestep="0.51020408163265307" part="0" file="w000025.vtu" />
    <DataSet timestep="0.53061224489795911" part="0" file="w000026.vtu" />
    <DataSet timestep="0.55102040816326525" part="0" file="w000027.vtu" />
    <DataSet timestep="0.5714285714285714" part="0" file="w000028.vtu" />
    <DataSet timestep="0.59183673469387754" part="0" file="w000029.vtu" />
    <DataSet timestep="0.61224489795918358" part="0" file="w000030.vtu" />
    <DataSet timestep="0.63265306122448972" part="0" file="w000031.vtu" />
    <DataSet timestep="0.65306122448979587" part="0" file="w000032.vtu" />
    <DataSet timestep="0.67346938775510201" part="0" file="w000033.vtu" />
    <DataSet timestep="0.69387755102040816" part="0" file="w000034.vtu" />
    <DataSet timestep="0.71428571428571419" part="0" file="w000035.vtu" />
    <DataSet timestep="0.73469387755102034" part="0" file="w000036.vtu" />
    <DataSet timestep="0.75510204081632648" part="0" file="w000037.vtu" />
    <DataSet timestep="0.77551020408163263" part="0" file="w000038.vtu" />
    <DataSet timestep="0.79591836734693866" part="0" file="w000039.vtu" />
    <DataSet timestep="0.81632653061224481" part="0" file="w000040.vtu" />
    <DataSet timestep="0.83673469387755095" part="0" file="w000041.vtu" />
    <DataSet timestep="0.8571428571428571" part="0" file="w000042.vtu" />
    <DataSet timestep="0.87755102040816324" part="0" file="w000043.vtu" />
    <DataSet timestep="0.89795918367346927" part="0" file="w000044.vtu" />
    <DataSet timestep="0.91836734693877542" part="0" file="w000045.vtu" />
    <DataSet timestep="0.93877551020408156" part="0" file="w000046.vtu" />
    <DataSet timestep="0.95918367346938771" part="0" file="w000047.vtu" />
    <DataSet timestep="0.97959183673469385" part="0" file="w000048.vtu" />
    <DataSet timestep="1" part="0" file="w000049.vtu" />
  </Collection>
</VTKFile>
